^E:\UNITBV\ANUL II\SEMESTRUL II\NETWORKING\TEMA 4\SLIDING WINDOW\SLIDING WINDOW\DEBUG\SELECTIVEREPEAT.OBJ|E:\UNITBV\ANUL II\SEMESTRUL II\NETWORKING\TEMA 4\SLIDING WINDOW\SLIDING WINDOW\DEBUG\SLIDINGWINDOW.OBJ
E:\UNITBV\ANUL II\SEMESTRUL II\NETWORKING\TEMA 4\SLIDING WINDOW\DEBUG\SLIDING WINDOW.EXE
E:\UNITBV\ANUL II\SEMESTRUL II\NETWORKING\TEMA 4\SLIDING WINDOW\DEBUG\SLIDING WINDOW.ILK
E:\UNITBV\ANUL II\SEMESTRUL II\NETWORKING\TEMA 4\SLIDING WINDOW\DEBUG\SLIDING WINDOW.PDB
